<?xml version="1.0" encoding="UTF-8"?>
<session version="1.0">
<refactoring comment="Delete resource &apos;chess&apos;" deleteContents="false" description="Delete resource &apos;chess&apos;" element1="/chess" flags="7" id="org.eclipse.ltk.core.refactoring.delete.resources" resources="1" stamp="1505400053922"/>
</session>