# List of external plug-in models previously loaded. Timestamp: 1511364878544
file:/root/.p2/pool/plugins/ch.qos.logback.classic_1.0.7.v20121108-1250.jar
file:/root/.p2/pool/plugins/ch.qos.logback.core_1.0.7.v20121108-1250.jar
file:/root/.p2/pool/plugins/ch.qos.logback.slf4j_1.0.7.v201505121915.jar
file:/root/.p2/pool/plugins/com.genuitec.eclipse.core_15.0.0.201709142212.jar
file:/root/.p2/pool/plugins/com.genuitec.eclipse.core.common.platform_13.0.2.201707061331.jar
file:/root/.p2/pool/plugins/com.genuitec.eclipse.inlinesearch_1.8.4.201709132125.jar
file:/root/.p2/pool/plugins/com.genuitec.eclipse.jniwrapper_13.0.0.201701041554.jar
file:/root/.p2/pool/plugins/com.genuitec.eclipse.meexplorer_13.0.0.201709121041.jar
file:/root/.p2/pool/plugins/com.genuitec.eclipse.meexplorer.jdt_1.8.4.201709111118.jar
file:/root/.p2/pool/plugins/com.genuitec.eclipse.modernweb.startup_1.8.4.201709131105.jar
file:/root/.p2/pool/plugins/com.genuitec.eclipse.monitor_13.0.0.201709141737.jar
file:/root/.p2/pool/plugins/com.genuitec.eclipse.news_1.8.1.201705261811.jar
file:/root/.p2/pool/plugins/com.genuitec.eclipse.patches_1.8.3.201707061331.jar
file:/root/.p2/pool/plugins/com.genuitec.eclipse.startup_1.8.4.201709142212.jar
file:/root/.p2/pool/plugins/com.genuitec.eclipse.startup.workspace_1.8.4.201709081557.jar
file:/root/.p2/pool/plugins/com.genuitec.eclipse.theming.base_1.8.3.201707031119.jar
file:/root/.p2/pool/plugins/com.genuitec.eclipse.theming.core_1.8.4.201709142212.jar
file:/root/.p2/pool/plugins/com.genuitec.eclipse.theming.css_1.8.4.201709131856.jar
file:/root/.p2/pool/plugins/com.genuitec.eclipse.theming.epl_1.8.3.201706290144.jar
file:/root/.p2/pool/plugins/com.genuitec.eclipse.theming.icon.designer_1.8.3.201706191702.jar
file:/root/.p2/pool/plugins/com.genuitec.eclipse.theming.scrollbar_1.8.3.201706222333.jar
file:/root/.p2/pool/plugins/com.genuitec.eclipse.theming.ui_1.8.4.201709142212.jar
file:/root/.p2/pool/plugins/com.genuitec.eclipse.ui.common.platform_13.0.0.201709081557.jar
file:/root/.p2/pool/plugins/com.genuitec.eclipse.webclipse.evergreen_1.8.4.201709132318.jar
file:/root/.p2/pool/plugins/com.genuitec.eclipse.webicons_1.8.4.201709142212.jar
file:/root/.p2/pool/plugins/com.genuitec.eclipsecolortheme.api_1.8.4.201709131613.jar
file:/root/.p2/pool/plugins/com.google.gson_2.7.0.v20170129-0911.jar
file:/root/.p2/pool/plugins/com.google.guava_21.0.0.v20170206-1425.jar
file:/root/.p2/pool/plugins/com.google.guava_15.0.0.v201403281430.jar
file:/root/.p2/pool/plugins/com.google.inject_3.0.0.v201605172100.jar
file:/root/.p2/pool/plugins/com.google.inject.multibindings_3.0.0.v201605172100.jar
file:/root/.p2/pool/plugins/com.googlecode.json-simple_1.1.1.me201606061543.jar
file:/root/.p2/pool/plugins/com.gradleware.tooling.client_0.19.3.v20170801075239.jar
file:/root/.p2/pool/plugins/com.gradleware.tooling.model_0.19.3.v20170801075239.jar
file:/root/.p2/pool/plugins/com.gradleware.tooling.utils_0.19.3.v20170801075239.jar
file:/root/.p2/pool/plugins/com.ibm.icu_58.2.0.v20170418-1837.jar
file:/root/.p2/pool/plugins/com.jcraft.jsch_0.1.54.v20170116-1932.jar
file:/root/.p2/pool/plugins/com.objectaid.uml_1.2.2.jar
file:/root/.p2/pool/plugins/com.objectaid.uml.addon_1.2.2.jar
file:/root/.p2/pool/plugins/com.objectaid.uml.addon.cls_1.2.2.jar
file:/root/.p2/pool/plugins/com.objectaid.uml.addon.java_1.2.2.jar
file:/root/.p2/pool/plugins/com.objectaid.uml.cls_1.2.2.jar
file:/root/.p2/pool/plugins/com.objectaid.uml.cls.java_1.2.2.jar
file:/root/.p2/pool/plugins/com.objectaid.uml.java_1.2.2.jar
file:/root/.p2/pool/plugins/com.objectaid.uml.seq_1.2.2.jar
file:/root/.p2/pool/plugins/com.objectaid.uml.seq.java_1.2.2.jar
file:/root/.p2/pool/plugins/com.sun.el_2.2.0.v201303151357.jar
file:/root/.p2/pool/plugins/javaewah_1.1.6.v20160919-1400.jar
file:/root/.p2/pool/plugins/javax.annotation_1.2.0.v201602091430.jar
file:/root/.p2/pool/plugins/javax.el_2.2.0.v201303151357.jar
file:/root/.p2/pool/plugins/javax.inject_1.0.0.v20091030.jar
file:/root/.p2/pool/plugins/javax.servlet_3.1.0.v201410161800.jar
file:/root/.p2/pool/plugins/javax.servlet.jsp_2.2.0.v201112011158.jar
file:/root/.p2/pool/plugins/javax.websocket-api_1.1.0.201606171313.jar
file:/root/.p2/pool/plugins/javax.xml_1.3.4.v201005080400.jar
file:/root/.p2/pool/plugins/lpg.runtime.java_2.0.17.v201004271640.jar
file:/root/.p2/pool/plugins/minimal-json_0.9.4.me201510080624.jar
file:/root/.p2/pool/plugins/net.sf.eclipsecs.branding_8.0.0.201707161029.jar
file:/root/.p2/pool/plugins/net.sf.eclipsecs.checkstyle_8.0.0.201707161252.jar
file:/root/.p2/pool/plugins/net.sf.eclipsecs.core_8.0.0.201707161816.jar
file:/root/.p2/pool/plugins/net.sf.eclipsecs.doc_8.0.0.201707161252.jar
file:/root/.p2/pool/plugins/net.sf.eclipsecs.ui_8.0.0.201707161819.jar
file:/root/.p2/pool/plugins/org.antlr.runtime_4.3.0.v201502022030.jar
file:/root/.p2/pool/plugins/org.apache.ant_1.10.1.v20170504-0840/
file:/root/.p2/pool/plugins/org.apache.batik.bridge_1.6.0.v201011041432.jar
file:/root/.p2/pool/plugins/org.apache.batik.css_1.8.0.v20170214-1941.jar
file:/root/.p2/pool/plugins/org.apache.batik.css_1.6.0.v201011041432.jar
file:/root/.p2/pool/plugins/org.apache.batik.dom_1.6.1.v201505192100.jar
file:/root/.p2/pool/plugins/org.apache.batik.dom_1.6.0.v201011041432.jar
file:/root/.p2/pool/plugins/org.apache.batik.dom.svg_1.6.0.v201011041432.jar
file:/root/.p2/pool/plugins/org.apache.batik.ext.awt_1.6.0.v201011041432.jar
file:/root/.p2/pool/plugins/org.apache.batik.extension_1.6.0.v201011041432.jar
file:/root/.p2/pool/plugins/org.apache.batik.parser_1.6.0.v201011041432.jar
file:/root/.p2/pool/plugins/org.apache.batik.pdf_1.6.0.v201105071520.jar
file:/root/.p2/pool/plugins/org.apache.batik.svggen_1.6.0.v201011041432.jar
file:/root/.p2/pool/plugins/org.apache.batik.swing_1.6.0.v201011041432.jar
file:/root/.p2/pool/plugins/org.apache.batik.transcoder_1.6.0.v201011041432.jar
file:/root/.p2/pool/plugins/org.apache.batik.util_1.8.0.v20170214-1941.jar
file:/root/.p2/pool/plugins/org.apache.batik.util_1.6.0.v201011041432.jar
file:/root/.p2/pool/plugins/org.apache.batik.util.gui_1.8.0.v20170214-1941.jar
file:/root/.p2/pool/plugins/org.apache.batik.util.gui_1.6.0.v201011041432.jar
file:/root/.p2/pool/plugins/org.apache.batik.xml_1.6.0.v201011041432.jar
file:/root/.p2/pool/plugins/org.apache.commons.codec_1.9.0.v20170208-1614.jar
file:/root/.p2/pool/plugins/org.apache.commons.collections_3.2.2.v201511171945.jar
file:/root/.p2/pool/plugins/org.apache.commons.compress_1.6.0.v201310281400.jar
file:/root/.p2/pool/plugins/org.apache.commons.httpclient_3.1.0.v201012070820.jar
file:/root/.p2/pool/plugins/org.apache.commons.io_2.2.0.v201405211200.jar
file:/root/.p2/pool/plugins/org.apache.commons.jxpath_1.3.0.v200911051830.jar
file:/root/.p2/pool/plugins/org.apache.commons.lang_2.6.0.v201404270220.jar
file:/root/.p2/pool/plugins/org.apache.commons.lang3_3.1.0.v201403281430.jar
file:/root/.p2/pool/plugins/org.apache.commons.logging_1.1.1.v201101211721.jar
file:/root/.p2/pool/plugins/org.apache.commons.math_2.1.0.v201105210652.jar
file:/root/.p2/pool/plugins/org.apache.commons.pool_1.6.0.v201204271246.jar
file:/root/.p2/pool/plugins/org.apache.felix.gogo.command_0.10.0.v201209301215.jar
file:/root/.p2/pool/plugins/org.apache.felix.gogo.runtime_0.10.0.v201209301036.jar
file:/root/.p2/pool/plugins/org.apache.felix.gogo.shell_0.10.0.v201212101605.jar
file:/root/.p2/pool/plugins/org.apache.felix.scr_2.0.10.v20170501-2007.jar
file:/root/.p2/pool/plugins/org.apache.httpcomponents.httpclient_4.5.2.v20170210-0925.jar
file:/root/.p2/pool/plugins/org.apache.httpcomponents.httpcore_4.4.6.v20170210-0925.jar
file:/root/.p2/pool/plugins/org.apache.jasper.glassfish_2.2.2.v201501141630.jar
file:/root/.p2/pool/plugins/org.apache.log4j_1.2.15.v201012070815.jar
file:/root/.p2/pool/plugins/org.apache.lucene.analyzers-common_6.1.0.v20161115-1612.jar
file:/root/.p2/pool/plugins/org.apache.lucene.analyzers-smartcn_6.1.0.v20161115-1612.jar
file:/root/.p2/pool/plugins/org.apache.lucene.core_6.1.0.v20170814-1820.jar
file:/root/.p2/pool/plugins/org.apache.lucene.core_3.5.0.v20120725-1805.jar
file:/root/.p2/pool/plugins/org.apache.lucene.misc_6.1.0.v20161115-1612.jar
file:/root/.p2/pool/plugins/org.apache.lucene.queryparser_6.1.0.v20161115-1612.jar
file:/root/.p2/pool/plugins/org.apache.maven.resolver.api_1.0.3.v20170405-0725.jar
file:/root/.p2/pool/plugins/org.apache.maven.resolver.connector.basic_1.0.3.v20170405-0725.jar
file:/root/.p2/pool/plugins/org.apache.maven.resolver.impl_1.0.3.v20170405-0725.jar
file:/root/.p2/pool/plugins/org.apache.maven.resolver.spi_1.0.3.v20170405-0725.jar
file:/root/.p2/pool/plugins/org.apache.maven.resolver.transport.file_1.0.3.v20170405-0725.jar
file:/root/.p2/pool/plugins/org.apache.maven.resolver.transport.http_1.0.3.v20170405-0725.jar
file:/root/.p2/pool/plugins/org.apache.maven.resolver.util_1.0.3.v20170405-0725.jar
file:/root/.p2/pool/plugins/org.apache.solr.client.solrj_3.5.0.v20150506-0844.jar
file:/root/.p2/pool/plugins/org.apache.ws.commons.util_1.0.1.v20100518-1140.jar
file:/root/.p2/pool/plugins/org.apache.xerces_2.9.0.v201101211617.jar
file:/root/.p2/pool/plugins/org.apache.xml.resolver_1.2.0.v201005080400.jar
file:/root/.p2/pool/plugins/org.apache.xml.serializer_2.7.1.v201005080400.jar
file:/root/.p2/pool/plugins/org.apache.xmlrpc_3.0.0.v20100427-1100.jar
file:/root/.p2/pool/plugins/org.apiguardian_1.0.0.v20170910-2246.jar
file:/root/.p2/pool/plugins/org.eclipse.acceleo.annotations_5.0.1.201610060831.jar
file:/root/.p2/pool/plugins/org.eclipse.acceleo.common_3.7.1.201705121344.jar
file:/root/.p2/pool/plugins/org.eclipse.acceleo.common.ide_3.6.6.201610060831.jar
file:/root/.p2/pool/plugins/org.eclipse.acceleo.common.ui_3.6.6.201610060831.jar
file:/root/.p2/pool/plugins/org.eclipse.acceleo.engine_3.7.1.201705121344.jar
file:/root/.p2/pool/plugins/org.eclipse.acceleo.ide.ui_3.6.6.201610060831.jar
file:/root/.p2/pool/plugins/org.eclipse.acceleo.model_3.7.1.201705121344.jar
file:/root/.p2/pool/plugins/org.eclipse.acceleo.parser_3.6.6.201610060831.jar
file:/root/.p2/pool/plugins/org.eclipse.acceleo.profiler_3.7.1.201705121344.jar
file:/root/.p2/pool/plugins/org.eclipse.acceleo.query_5.0.2.201610060831.jar
file:/root/.p2/pool/plugins/org.eclipse.acceleo.traceability_3.6.6.201610060831.jar
file:/root/.p2/pool/plugins/org.eclipse.acceleo.traceability.model_3.6.6.201610060831.jar
file:/root/.p2/pool/plugins/org.eclipse.acceleo.ui.interpreter_3.6.6.201610060831.jar
file:/root/.p2/pool/plugins/org.eclipse.aether.maven_3.1.0.v20140706-2237.jar
file:/root/.p2/pool/plugins/org.eclipse.amalgam.discovery.core_1.7.0.201605311215.jar
file:/root/.p2/pool/plugins/org.eclipse.amalgam.discovery.ui_1.7.0.201605311215.jar
file:/root/.p2/pool/plugins/org.eclipse.amalgam.explorer.activity.ui_1.7.0.201605311215.jar
file:/root/.p2/pool/plugins/org.eclipse.ant.core_3.5.0.v20170509-2149.jar
file:/root/.p2/pool/plugins/org.eclipse.ant.launching_1.2.0.v20170509-2157.jar
file:/root/.p2/pool/plugins/org.eclipse.ant.ui_3.7.0.v20170412-1054.jar
file:/root/.p2/pool/plugins/org.eclipse.buildship.branding_2.1.2.v20170807-1324.jar
file:/root/.p2/pool/plugins/org.eclipse.buildship.core_2.1.2.v20170807-1324.jar
file:/root/.p2/pool/plugins/org.eclipse.buildship.stsmigration_2.1.2.v20170807-1324.jar
file:/root/.p2/pool/plugins/org.eclipse.buildship.ui_2.1.2.v20170807-1324.jar
file:/root/.p2/pool/plugins/org.eclipse.compare_3.7.101.v20170724-1603.jar
file:/root/.p2/pool/plugins/org.eclipse.compare.core_3.6.100.v20170516-0820.jar
file:/root/.p2/pool/plugins/org.eclipse.core.commands_3.9.0.v20170530-1048.jar
file:/root/.p2/pool/plugins/org.eclipse.core.contenttype_3.6.0.v20170207-1037.jar
file:/root/.p2/pool/plugins/org.eclipse.core.databinding_1.6.100.v20170515-1119.jar
file:/root/.p2/pool/plugins/org.eclipse.core.databinding.beans_1.4.0.v20170210-0856.jar
file:/root/.p2/pool/plugins/org.eclipse.core.databinding.observable_1.6.100.v20170515-1119.jar
file:/root/.p2/pool/plugins/org.eclipse.core.databinding.property_1.6.100.v20170515-1119.jar
file:/root/.p2/pool/plugins/org.eclipse.core.expressions_3.6.0.v20170207-1037.jar
file:/root/.p2/pool/plugins/org.eclipse.core.externaltools_1.1.0.v20170113-2056.jar
file:/root/.p2/pool/plugins/org.eclipse.core.filebuffers_3.6.100.v20170203-1130.jar
file:/root/.p2/pool/plugins/org.eclipse.core.filesystem_1.7.0.v20170406-1337.jar
file:/root/.p2/pool/plugins/org.eclipse.core.filesystem.linux.x86_64_1.2.200.v20140124-1940.jar
file:/root/.p2/pool/plugins/org.eclipse.core.jobs_3.9.1.v20170714-0547.jar
file:/root/.p2/pool/plugins/org.eclipse.core.net_1.3.100.v20170516-0820.jar
file:/root/.p2/pool/plugins/org.eclipse.core.net.linux.x86_64_1.2.0.v20160323-1650.jar
file:/root/.p2/pool/plugins/org.eclipse.core.resources_3.12.0.v20170417-1558.jar
file:/root/.p2/pool/plugins/org.eclipse.core.runtime_3.13.0.v20170207-1030.jar
file:/root/.p2/pool/plugins/org.eclipse.core.variables_3.4.0.v20170113-2056.jar
file:/root/.p2/pool/plugins/org.eclipse.debug.core_3.11.0.v20170605-1534.jar
file:/root/.p2/pool/plugins/org.eclipse.debug.ui_3.12.50.v20170920-1329.jar
file:/root/.p2/pool/plugins/org.eclipse.draw2d_3.10.100.201606061308.jar
file:/root/.p2/pool/plugins/org.eclipse.e4.core.commands_0.12.100.v20170513-0428.jar
file:/root/.p2/pool/plugins/org.eclipse.e4.core.contexts_1.6.0.v20170322-1144.jar
file:/root/.p2/pool/plugins/org.eclipse.e4.core.di_1.6.100.v20170421-1418.jar
file:/root/.p2/pool/plugins/org.eclipse.e4.core.di.annotations_1.6.0.v20170119-2002.jar
file:/root/.p2/pool/plugins/org.eclipse.e4.core.di.extensions_0.15.0.v20170228-1728.jar
file:/root/.p2/pool/plugins/org.eclipse.e4.core.di.extensions.supplier_0.15.0.v20170407-0928.jar
file:/root/.p2/pool/plugins/org.eclipse.e4.core.services_2.1.0.v20170407-0928.jar
file:/root/.p2/pool/plugins/org.eclipse.e4.emf.xpath_0.2.0.v20160630-0728.jar
file:/root/.p2/pool/plugins/org.eclipse.e4.ui.bindings_0.12.1.v20170823-1632.jar
file:/root/.p2/pool/plugins/org.eclipse.e4.ui.css.core_0.12.101.v20170712-1547.jar
file:/root/.p2/pool/plugins/org.eclipse.e4.ui.css.swt_0.13.1.v20170808-1940.jar
file:/root/.p2/pool/plugins/org.eclipse.e4.ui.css.swt.theme_0.11.0.v20170312-2302.jar
file:/root/.p2/pool/plugins/org.eclipse.e4.ui.di_1.2.100.v20170414-1137.jar
file:/root/.p2/pool/plugins/org.eclipse.e4.ui.dialogs_1.1.100.v20170104-1425.jar
file:/root/.p2/pool/plugins/org.eclipse.e4.ui.model.workbench_2.0.1.v20170713-1800.jar
file:/root/.p2/pool/plugins/org.eclipse.e4.ui.services_1.3.0.v20170307-2032.jar
file:/root/.p2/pool/plugins/org.eclipse.e4.ui.swt.gtk_1.0.200.v20170513-0428.jar
file:/root/.p2/pool/plugins/org.eclipse.e4.ui.widgets_1.2.0.v20160630-0736.jar
file:/root/.p2/pool/plugins/org.eclipse.e4.ui.workbench_1.5.1.v20170815-1446.jar
file:/root/.p2/pool/plugins/org.eclipse.e4.ui.workbench.addons.swt_1.3.1.v20170319-1442.jar
file:/root/.p2/pool/plugins/org.eclipse.e4.ui.workbench.renderers.swt_0.14.101.v20170713-1343.jar
file:/root/.p2/pool/plugins/org.eclipse.e4.ui.workbench.swt_0.14.101.v20170710-1119.jar
file:/root/.p2/pool/plugins/org.eclipse.e4.ui.workbench3_0.14.0.v20160630-0740.jar
file:/root/.p2/pool/plugins/org.eclipse.ecf_3.8.0.v20170104-0657.jar
file:/root/.p2/pool/plugins/org.eclipse.ecf.filetransfer_5.0.0.v20160817-1024.jar
file:/root/.p2/pool/plugins/org.eclipse.ecf.identity_3.8.0.v20161203-2153.jar
file:/root/.p2/pool/plugins/org.eclipse.ecf.provider.filetransfer_3.2.300.v20161203-1840.jar
file:/root/.p2/pool/plugins/org.eclipse.ecf.provider.filetransfer.httpclient4_1.1.200.v20170314-0133.jar
file:/root/.p2/pool/plugins/org.eclipse.ecf.provider.filetransfer.httpclient4.ssl_1.1.0.v20160817-1024.jar
file:/root/.p2/pool/plugins/org.eclipse.ecf.provider.filetransfer.ssl_1.0.0.v20160817-1024.jar
file:/root/.p2/pool/plugins/org.eclipse.ecf.ssl_1.2.0.v20160817-1024.jar
file:/root/.p2/pool/plugins/org.eclipse.eclemma.core_3.0.0.201706140232.jar
file:/root/.p2/pool/plugins/org.eclipse.eclemma.doc_3.0.0.201706140232.jar
file:/root/.p2/pool/plugins/org.eclipse.eclemma.ui_3.0.0.201706140232.jar
file:/root/.p2/pool/plugins/org.eclipse.egit_4.8.0.201706111038-r.jar
file:/root/.p2/pool/plugins/org.eclipse.egit.core_4.8.0.201706111038-r.jar
file:/root/.p2/pool/plugins/org.eclipse.egit.doc_4.8.0.201706111038-r.jar
file:/root/.p2/pool/plugins/org.eclipse.egit.mylyn.ui_4.8.0.201706111038-r.jar
file:/root/.p2/pool/plugins/org.eclipse.egit.ui_4.8.0.201706111038-r.jar
file:/root/.p2/pool/plugins/org.eclipse.emf_2.6.0.v20160526-0356.jar
file:/root/.p2/pool/plugins/org.eclipse.emf.ant_2.8.0.v20160526-0356.jar
file:/root/.p2/pool/plugins/org.eclipse.emf.codegen_2.11.0.v20160526-0356.jar
file:/root/.p2/pool/plugins/org.eclipse.emf.codegen.ecore_2.12.0.v20160526-0356.jar
file:/root/.p2/pool/plugins/org.eclipse.emf.codegen.ecore.ui_2.12.0.v20160526-0356.jar
file:/root/.p2/pool/plugins/org.eclipse.emf.common_2.13.0.v20170609-0707.jar
file:/root/.p2/pool/plugins/org.eclipse.emf.common.ui_2.12.0.v20170609-0928.jar
file:/root/.p2/pool/plugins/org.eclipse.emf.converter_2.7.0.v20160526-0356.jar
file:/root/.p2/pool/plugins/org.eclipse.emf.databinding_1.3.0.v20170609-0928.jar
file:/root/.p2/pool/plugins/org.eclipse.emf.ecore_2.13.0.v20170609-0707.jar
file:/root/.p2/pool/plugins/org.eclipse.emf.ecore.change_2.11.0.v20170609-0707.jar
file:/root/.p2/pool/plugins/org.eclipse.emf.ecore.change.edit_2.6.0.v20170609-0928.jar
file:/root/.p2/pool/plugins/org.eclipse.emf.ecore.edit_2.9.0.v20170609-0928.jar
file:/root/.p2/pool/plugins/org.eclipse.emf.ecore.editor_2.12.0.v20160526-0356.jar
file:/root/.p2/pool/plugins/org.eclipse.emf.ecore.xmi_2.13.0.v20170609-0707.jar
file:/root/.p2/pool/plugins/org.eclipse.emf.edit_2.12.0.v20170609-0928.jar
file:/root/.p2/pool/plugins/org.eclipse.emf.edit.ui_2.13.0.v20170609-0928.jar
file:/root/.p2/pool/plugins/org.eclipse.emf.eef.runtime_1.5.1.201601141612.jar
file:/root/.p2/pool/plugins/org.eclipse.emf.exporter_2.7.0.v20160526-0356.jar
file:/root/.p2/pool/plugins/org.eclipse.emf.importer_2.9.0.v20160526-0356.jar
file:/root/.p2/pool/plugins/org.eclipse.emf.importer.ecore_2.8.0.v20160526-0356.jar
file:/root/.p2/pool/plugins/org.eclipse.emf.mapping.ecore2xml_2.9.0.v20170609-0928.jar
file:/root/.p2/pool/plugins/org.eclipse.emf.transaction_1.9.0.201606071900.jar
file:/root/.p2/pool/plugins/org.eclipse.emf.transaction.ui_1.4.0.201606071900.jar
file:/root/.p2/pool/plugins/org.eclipse.emf.validation_1.8.0.201606071713.jar
file:/root/.p2/pool/plugins/org.eclipse.emf.validation.ui_1.7.0.201606071713.jar
file:/root/.p2/pool/plugins/org.eclipse.emf.validation.ui.ide_1.3.0.201606071713.jar
file:/root/.p2/pool/plugins/org.eclipse.emf.workspace_1.5.1.201606071900.jar
file:/root/.p2/pool/plugins/org.eclipse.emf.workspace.ui_1.3.0.201606071900.jar
file:/root/.p2/pool/plugins/org.eclipse.epp.logging.aeri.core_2.0.6.v20170906-1226.jar
file:/root/.p2/pool/plugins/org.eclipse.epp.logging.aeri.ide_2.0.6.v20170906-1226.jar
file:/root/.p2/pool/plugins/org.eclipse.epp.mpc.core_1.6.2.v20170926-1241.jar
file:/root/.p2/pool/plugins/org.eclipse.epp.mpc.help.ui_1.6.2.v20170926-1241.jar
file:/root/.p2/pool/plugins/org.eclipse.epp.mpc.ui_1.6.2.v20171004-2006.jar
file:/root/.p2/pool/plugins/org.eclipse.epp.package.common_4.7.1.20171005-1200/
file:/root/.p2/pool/plugins/org.eclipse.epp.package.java_4.7.1.20171005-1200/
file:/root/.p2/pool/plugins/org.eclipse.equinox.app_1.3.400.v20150715-1528.jar
file:/root/.p2/pool/plugins/org.eclipse.equinox.bidi_1.1.0.v20160728-1031.jar
file:/root/.p2/pool/plugins/org.eclipse.equinox.common_3.9.0.v20170207-1454.jar
file:/root/.p2/pool/plugins/org.eclipse.equinox.concurrent_1.1.0.v20130327-1442.jar
file:/root/.p2/pool/plugins/org.eclipse.equinox.console_1.1.300.v20170512-2111.jar
file:/root/.p2/pool/plugins/org.eclipse.equinox.ds_1.5.0.v20170307-1429.jar
file:/root/.p2/pool/plugins/org.eclipse.equinox.event_1.4.0.v20170105-1446.jar
file:/root/.p2/pool/plugins/org.eclipse.equinox.frameworkadmin_2.0.300.v20160504-1450.jar
file:/root/.p2/pool/plugins/org.eclipse.equinox.frameworkadmin.equinox_1.0.800.v20170524-1345.jar
file:/root/.p2/pool/plugins/org.eclipse.equinox.http.jetty_3.4.0.v20170503-2025.jar
file:/root/.p2/pool/plugins/org.eclipse.equinox.http.registry_1.1.400.v20150715-1528.jar
file:/root/.p2/pool/plugins/org.eclipse.equinox.http.servlet_1.4.0.v20170524-1452.jar
file:/root/.p2/pool/plugins/org.eclipse.equinox.jsp.jasper_1.0.500.v20150119-1358.jar
file:/root/.p2/pool/plugins/org.eclipse.equinox.jsp.jasper.registry_1.0.300.v20130327-1442.jar
file:/root/.p2/pool/plugins/org.eclipse.equinox.launcher_1.4.0.v20161219-1356.jar
file:/root/.p2/pool/plugins/org.eclipse.equinox.launcher.gtk.linux.x86_64_1.1.550.v20170928-1359/
file:/root/.p2/pool/plugins/org.eclipse.equinox.p2.artifact.repository_1.1.650.v20170928-1405.jar
file:/root/.p2/pool/plugins/org.eclipse.equinox.p2.console_1.0.600.v20170511-1106.jar
file:/root/.p2/pool/plugins/org.eclipse.equinox.p2.core_2.4.101.v20170906-1259.jar
file:/root/.p2/pool/plugins/org.eclipse.equinox.p2.director_2.3.300.v20160504-1450.jar
file:/root/.p2/pool/plugins/org.eclipse.equinox.p2.director.app_1.0.500.v20160419-0834.jar
file:/root/.p2/pool/plugins/org.eclipse.equinox.p2.directorywatcher_1.1.100.v20150423-1455.jar
file:/root/.p2/pool/plugins/org.eclipse.equinox.p2.discovery_1.0.400.v20160504-1450.jar
file:/root/.p2/pool/plugins/org.eclipse.equinox.p2.discovery.compatibility_1.0.201.v20170906-1259.jar
file:/root/.p2/pool/plugins/org.eclipse.equinox.p2.engine_2.5.0.v20170319-2002.jar
file:/root/.p2/pool/plugins/org.eclipse.equinox.p2.extensionlocation_1.2.300.v20160419-0834.jar
file:/root/.p2/pool/plugins/org.eclipse.equinox.p2.garbagecollector_1.0.300.v20160504-1450.jar
file:/root/.p2/pool/plugins/org.eclipse.equinox.p2.jarprocessor_1.0.500.v20160504-1450.jar
file:/root/.p2/pool/plugins/org.eclipse.equinox.p2.metadata_2.3.200.v20170511-1106.jar
file:/root/.p2/pool/plugins/org.eclipse.equinox.p2.metadata.repository_1.2.401.v20170906-1259.jar
file:/root/.p2/pool/plugins/org.eclipse.equinox.p2.operations_2.4.300.v20170511-1106.jar
file:/root/.p2/pool/plugins/org.eclipse.equinox.p2.publisher_1.4.200.v20170511-1216.jar
file:/root/.p2/pool/plugins/org.eclipse.equinox.p2.publisher.eclipse_1.2.201.v20170906-1259.jar
file:/root/.p2/pool/plugins/org.eclipse.equinox.p2.reconciler.dropins_1.1.400.v20160504-1450.jar
file:/root/.p2/pool/plugins/org.eclipse.equinox.p2.repository_2.3.301.v20170906-1259.jar
file:/root/.p2/pool/plugins/org.eclipse.equinox.p2.repository.tools_2.1.400.v20170511-1216.jar
file:/root/.p2/pool/plugins/org.eclipse.equinox.p2.touchpoint.eclipse_2.1.501.v20170906-1259.jar
file:/root/.p2/pool/plugins/org.eclipse.equinox.p2.touchpoint.natives_1.2.200.v20170511-1216.jar
file:/root/.p2/pool/plugins/org.eclipse.equinox.p2.transport.ecf_1.1.300.v20161004-0244.jar
file:/root/.p2/pool/plugins/org.eclipse.equinox.p2.ui_2.5.1.v20170906-1259.jar
file:/root/.p2/pool/plugins/org.eclipse.equinox.p2.ui.discovery_1.0.300.v20170418-0708.jar
file:/root/.p2/pool/plugins/org.eclipse.equinox.p2.ui.importexport_1.1.301.v20170816-1007.jar
file:/root/.p2/pool/plugins/org.eclipse.equinox.p2.ui.sdk_1.0.500.v20170511-1216.jar
file:/root/.p2/pool/plugins/org.eclipse.equinox.p2.ui.sdk.scheduler_1.3.100.v20170418-0708.jar
file:/root/.p2/pool/plugins/org.eclipse.equinox.p2.updatechecker_1.1.400.v20170106-2125.jar
file:/root/.p2/pool/plugins/org.eclipse.equinox.p2.updatesite_1.0.601.v20170906-1259.jar
file:/root/.p2/pool/plugins/org.eclipse.equinox.preferences_3.7.0.v20170126-2132.jar
file:/root/.p2/pool/plugins/org.eclipse.equinox.registry_3.7.0.v20170222-1344.jar
file:/root/.p2/pool/plugins/org.eclipse.equinox.security_1.2.300.v20170505-1235.jar
file:/root/.p2/pool/plugins/org.eclipse.equinox.security.linux.x86_64_1.0.100.v20170504-1307.jar
file:/root/.p2/pool/plugins/org.eclipse.equinox.security.ui_1.1.400.v20170505-1235.jar
file:/root/.p2/pool/plugins/org.eclipse.equinox.simpleconfigurator_1.2.0.v20170110-1705.jar
file:/root/.p2/pool/plugins/org.eclipse.equinox.simpleconfigurator.manipulator_2.0.300.v20170515-0721.jar
file:/root/.p2/pool/plugins/org.eclipse.equinox.util_1.0.500.v20130404-1337.jar
file:/root/.p2/pool/plugins/org.eclipse.gef_3.11.0.201606061308.jar
file:/root/.p2/pool/plugins/org.eclipse.gmf_1.10.0.201606071959.jar
file:/root/.p2/pool/plugins/org.eclipse.gmf.runtime.common.core_1.7.0.201606071959.jar
file:/root/.p2/pool/plugins/org.eclipse.gmf.runtime.common.ui_1.8.1.201606071959.jar
file:/root/.p2/pool/plugins/org.eclipse.gmf.runtime.common.ui.action_1.7.0.201606071959.jar
file:/root/.p2/pool/plugins/org.eclipse.gmf.runtime.common.ui.action.ide_1.7.0.201606071959.jar
file:/root/.p2/pool/plugins/org.eclipse.gmf.runtime.common.ui.printing_1.7.0.201606071959.jar
file:/root/.p2/pool/plugins/org.eclipse.gmf.runtime.common.ui.printing.win32_1.7.0.201606071959.jar
file:/root/.p2/pool/plugins/org.eclipse.gmf.runtime.common.ui.services_1.9.0.201606071959.jar
file:/root/.p2/pool/plugins/org.eclipse.gmf.runtime.common.ui.services.action_1.7.0.201606071959.jar
file:/root/.p2/pool/plugins/org.eclipse.gmf.runtime.common.ui.services.dnd_1.7.0.201606071959.jar
file:/root/.p2/pool/plugins/org.eclipse.gmf.runtime.common.ui.services.dnd.ide_1.7.0.201606071959.jar
file:/root/.p2/pool/plugins/org.eclipse.gmf.runtime.common.ui.services.properties_1.9.0.201606071959.jar
file:/root/.p2/pool/plugins/org.eclipse.gmf.runtime.diagram.core_1.7.0.201606071959.jar
file:/root/.p2/pool/plugins/org.eclipse.gmf.runtime.diagram.ui_1.8.0.201606071959.jar
file:/root/.p2/pool/plugins/org.eclipse.gmf.runtime.diagram.ui.actions_1.7.0.201606071959.jar
file:/root/.p2/pool/plugins/org.eclipse.gmf.runtime.diagram.ui.dnd_1.7.0.201606071959.jar
file:/root/.p2/pool/plugins/org.eclipse.gmf.runtime.diagram.ui.geoshapes_1.7.0.201606071959.jar
file:/root/.p2/pool/plugins/org.eclipse.gmf.runtime.diagram.ui.printing_1.7.0.201606071959.jar
file:/root/.p2/pool/plugins/org.eclipse.gmf.runtime.diagram.ui.printing.render_1.8.0.201606071959.jar
file:/root/.p2/pool/plugins/org.eclipse.gmf.runtime.diagram.ui.properties_1.7.0.201606071959.jar
file:/root/.p2/pool/plugins/org.eclipse.gmf.runtime.diagram.ui.providers_1.7.0.201606071959.jar
file:/root/.p2/pool/plugins/org.eclipse.gmf.runtime.diagram.ui.providers.ide_1.7.0.201606071959.jar
file:/root/.p2/pool/plugins/org.eclipse.gmf.runtime.diagram.ui.render_1.7.0.201606071959.jar
file:/root/.p2/pool/plugins/org.eclipse.gmf.runtime.diagram.ui.resources.editor_1.7.0.201606071959.jar
file:/root/.p2/pool/plugins/org.eclipse.gmf.runtime.diagram.ui.resources.editor.ide_1.7.0.201606071959.jar
file:/root/.p2/pool/plugins/org.eclipse.gmf.runtime.draw2d.ui_1.9.0.201606071959.jar
file:/root/.p2/pool/plugins/org.eclipse.gmf.runtime.draw2d.ui.render_1.7.0.201606071959.jar
file:/root/.p2/pool/plugins/org.eclipse.gmf.runtime.draw2d.ui.render.awt_1.8.0.201606071959.jar
file:/root/.p2/pool/plugins/org.eclipse.gmf.runtime.emf.clipboard.core_1.7.0.201606071959.jar
file:/root/.p2/pool/plugins/org.eclipse.gmf.runtime.emf.commands.core_1.7.0.201606071959.jar
file:/root/.p2/pool/plugins/org.eclipse.gmf.runtime.emf.core_1.7.0.201606071959.jar
file:/root/.p2/pool/plugins/org.eclipse.gmf.runtime.emf.type.core_1.9.0.201606071959.jar
file:/root/.p2/pool/plugins/org.eclipse.gmf.runtime.emf.type.ui_1.7.0.201606071959.jar
file:/root/.p2/pool/plugins/org.eclipse.gmf.runtime.emf.ui_1.7.0.201606071959.jar
file:/root/.p2/pool/plugins/org.eclipse.gmf.runtime.emf.ui.properties_1.7.0.201606071959.jar
file:/root/.p2/pool/plugins/org.eclipse.gmf.runtime.gef.ui_1.7.0.201606071959.jar
file:/root/.p2/pool/plugins/org.eclipse.gmf.runtime.notation_1.8.0.201606071631.jar
file:/root/.p2/pool/plugins/org.eclipse.gmf.runtime.notation.edit_1.7.0.201606071631.jar
file:/root/.p2/pool/plugins/org.eclipse.gmf.runtime.notation.providers_1.7.0.201606071959.jar
file:/root/.p2/pool/plugins/org.eclipse.help_3.8.1.v20170815-1448.jar
file:/root/.p2/pool/plugins/org.eclipse.help.base_4.2.101.v20171009-0410.jar
file:/root/.p2/pool/plugins/org.eclipse.help.ui_4.1.0.v20170311-0931.jar
file:/root/.p2/pool/plugins/org.eclipse.help.webapp_3.9.1.v20170816-0843.jar
file:/root/.p2/pool/plugins/org.eclipse.jdt_3.13.1.v20171009-0410.jar
file:/root/.p2/pool/plugins/org.eclipse.jdt.annotation_2.1.100.v20170511-1408.jar
file:/root/.p2/pool/plugins/org.eclipse.jdt.annotation_1.1.100.v20160418-1457.jar
file:/root/.p2/pool/plugins/org.eclipse.jdt.apt.core_3.5.50.v20170920-0950.jar
file:/root/.p2/pool/plugins/org.eclipse.jdt.apt.pluggable.core_1.2.0.v20170322-1054.jar
file:/root/.p2/pool/plugins/org.eclipse.jdt.apt.ui_3.5.0.v20170505-1107.jar
file:/root/.p2/pool/plugins/org.eclipse.jdt.compiler.apt_1.3.50.v20170920-0950.jar
file:/root/.p2/pool/plugins/org.eclipse.jdt.compiler.tool_1.2.50.v20170920-0950.jar
file:/root/.p2/pool/plugins/org.eclipse.jdt.core_3.13.50.v20171007-0855.jar
file:/root/.p2/pool/plugins/org.eclipse.jdt.core.manipulation_1.9.50.v20170920-1015.jar
file:/root/.p2/pool/plugins/org.eclipse.jdt.debug_3.11.50.v20170920-1717/
file:/root/.p2/pool/plugins/org.eclipse.jdt.debug.ui_3.8.50.v20170928-1211.jar
file:/root/.p2/pool/plugins/org.eclipse.jdt.doc.user_3.13.50.v20171004-1030.jar
file:/root/.p2/pool/plugins/org.eclipse.jdt.junit_3.10.50.v20171004-1157.jar
file:/root/.p2/pool/plugins/org.eclipse.jdt.junit.core_3.9.50.v20170927-1941.jar
file:/root/.p2/pool/plugins/org.eclipse.jdt.junit.runtime_3.4.650.v20170920-1015.jar
file:/root/.p2/pool/plugins/org.eclipse.jdt.junit4.runtime_1.1.650.v20170920-1015.jar
file:/root/.p2/pool/plugins/org.eclipse.jdt.junit5.runtime_1.0.0.v20171006-0854.jar
file:/root/.p2/pool/plugins/org.eclipse.jdt.launching_3.9.50.v20171009-0349.jar
file:/root/.p2/pool/plugins/org.eclipse.jdt.ui_3.13.50.v20170929-1653.jar
file:/root/.p2/pool/plugins/org.eclipse.jem.util_2.1.201.v201707201954.jar
file:/root/.p2/pool/plugins/org.eclipse.jetty.continuation_9.4.5.v20170502.jar
file:/root/.p2/pool/plugins/org.eclipse.jetty.http_9.4.5.v20170502.jar
file:/root/.p2/pool/plugins/org.eclipse.jetty.io_9.4.5.v20170502.jar
file:/root/.p2/pool/plugins/org.eclipse.jetty.security_9.4.5.v20170502.jar
file:/root/.p2/pool/plugins/org.eclipse.jetty.server_9.4.5.v20170502.jar
file:/root/.p2/pool/plugins/org.eclipse.jetty.servlet_9.4.5.v20170502.jar
file:/root/.p2/pool/plugins/org.eclipse.jetty.util_9.4.5.v20170502.jar
file:/root/.p2/pool/plugins/org.eclipse.jface_3.13.1.v20170810-0135.jar
file:/root/.p2/pool/plugins/org.eclipse.jface.databinding_1.8.100.v20170503-1507.jar
file:/root/.p2/pool/plugins/org.eclipse.jface.text_3.12.0.v20170523-1043.jar
file:/root/.p2/pool/plugins/org.eclipse.jgit_4.8.0.201706111038-r.jar
file:/root/.p2/pool/plugins/org.eclipse.jgit.archive_4.8.0.201706111038-r.jar
file:/root/.p2/pool/plugins/org.eclipse.jsch.core_1.3.0.v20160422-1917.jar
file:/root/.p2/pool/plugins/org.eclipse.jsch.ui_1.3.0.v20160323-1650.jar
file:/root/.p2/pool/plugins/org.eclipse.ltk.core.refactoring_3.8.0.v20170105-1156.jar
file:/root/.p2/pool/plugins/org.eclipse.ltk.ui.refactoring_3.9.0.v20170412-0825.jar
file:/root/.p2/pool/plugins/org.eclipse.m2e.archetype.common_1.8.2.20171007-0216/
file:/root/.p2/pool/plugins/org.eclipse.m2e.core_1.8.2.20171007-0217.jar
file:/root/.p2/pool/plugins/org.eclipse.m2e.core.ui_1.8.2.20171007-0217.jar
file:/root/.p2/pool/plugins/org.eclipse.m2e.discovery_1.8.2.20171007-0217.jar
file:/root/.p2/pool/plugins/org.eclipse.m2e.editor_1.8.2.20171007-0217.jar
file:/root/.p2/pool/plugins/org.eclipse.m2e.editor.xml_1.8.2.20171007-0217.jar
file:/root/.p2/pool/plugins/org.eclipse.m2e.importer_1.8.2.20171007-0217.jar
file:/root/.p2/pool/plugins/org.eclipse.m2e.jdt_1.8.2.20171007-0217.jar
file:/root/.p2/pool/plugins/org.eclipse.m2e.jdt.ui_1.8.2.20171007-0217.jar
file:/root/.p2/pool/plugins/org.eclipse.m2e.launching_1.8.2.20171007-0217.jar
file:/root/.p2/pool/plugins/org.eclipse.m2e.lifecyclemapping.defaults_1.8.2.20171007-0217.jar
file:/root/.p2/pool/plugins/org.eclipse.m2e.logback.appender_1.8.2.20171007-0217.jar
file:/root/.p2/pool/plugins/org.eclipse.m2e.logback.configuration_1.8.2.20171007-0217.jar
file:/root/.p2/pool/plugins/org.eclipse.m2e.maven.indexer_1.8.2.20171007-0216/
file:/root/.p2/pool/plugins/org.eclipse.m2e.maven.runtime_1.8.2.20171007-0216/
file:/root/.p2/pool/plugins/org.eclipse.m2e.maven.runtime.slf4j.simple_1.8.2.20171007-0216/
file:/root/.p2/pool/plugins/org.eclipse.m2e.model.edit_1.8.2.20171007-0217.jar
file:/root/.p2/pool/plugins/org.eclipse.m2e.profiles.core_1.8.2.20171007-0217.jar
file:/root/.p2/pool/plugins/org.eclipse.m2e.profiles.ui_1.8.2.20171007-0217.jar
file:/root/.p2/pool/plugins/org.eclipse.m2e.refactoring_1.8.2.20171007-0217.jar
file:/root/.p2/pool/plugins/org.eclipse.m2e.scm_1.8.2.20171007-0217.jar
file:/root/.p2/pool/plugins/org.eclipse.m2e.workspace.cli_0.3.1.jar
file:/root/.p2/pool/plugins/org.eclipse.mylyn.bugzilla.core_3.23.1.v20170623-0008.jar
file:/root/.p2/pool/plugins/org.eclipse.mylyn.bugzilla.ide_3.23.0.v20170411-2108.jar
file:/root/.p2/pool/plugins/org.eclipse.mylyn.bugzilla.ui_3.23.1.v20170623-0008.jar
file:/root/.p2/pool/plugins/org.eclipse.mylyn.builds.core_1.15.0.v20170411-2141.jar
file:/root/.p2/pool/plugins/org.eclipse.mylyn.builds.ui_1.15.0.v20170411-2141.jar
file:/root/.p2/pool/plugins/org.eclipse.mylyn.commons.core_3.23.0.v20170411-1844.jar
file:/root/.p2/pool/plugins/org.eclipse.mylyn.commons.identity.core_1.15.0.v20170411-1844.jar
file:/root/.p2/pool/plugins/org.eclipse.mylyn.commons.net_3.23.0.v20170411-1844.jar
file:/root/.p2/pool/plugins/org.eclipse.mylyn.commons.notifications.core_1.15.0.v20170411-1844.jar
file:/root/.p2/pool/plugins/org.eclipse.mylyn.commons.notifications.feed_1.15.0.v20170411-1844.jar
file:/root/.p2/pool/plugins/org.eclipse.mylyn.commons.notifications.ui_1.15.0.v20170411-1844.jar
file:/root/.p2/pool/plugins/org.eclipse.mylyn.commons.repositories.core_1.15.0.v20170411-1844.jar
file:/root/.p2/pool/plugins/org.eclipse.mylyn.commons.repositories.http.core_1.15.0.v20170411-1844.jar
file:/root/.p2/pool/plugins/org.eclipse.mylyn.commons.repositories.ui_1.15.0.v20170411-1844.jar
file:/root/.p2/pool/plugins/org.eclipse.mylyn.commons.screenshots_3.23.0.v20170411-1844.jar
file:/root/.p2/pool/plugins/org.eclipse.mylyn.commons.ui_3.23.0.v20170411-1844.jar
file:/root/.p2/pool/plugins/org.eclipse.mylyn.commons.workbench_3.23.0.v20170503-0014.jar
file:/root/.p2/pool/plugins/org.eclipse.mylyn.commons.xmlrpc_3.23.0.v20170411-1844.jar
file:/root/.p2/pool/plugins/org.eclipse.mylyn.context.core_3.23.0.v20170411-2108.jar
file:/root/.p2/pool/plugins/org.eclipse.mylyn.context.tasks.ui_3.23.0.v20170411-2108.jar
file:/root/.p2/pool/plugins/org.eclipse.mylyn.context.ui_3.23.0.v20170414-0629.jar
file:/root/.p2/pool/plugins/org.eclipse.mylyn.debug.ui_3.23.0.v20170411-2108.jar
file:/root/.p2/pool/plugins/org.eclipse.mylyn.discovery.core_3.23.0.v20170411-1844.jar
file:/root/.p2/pool/plugins/org.eclipse.mylyn.discovery.ui_3.23.0.v20170411-1844.jar
file:/root/.p2/pool/plugins/org.eclipse.mylyn.git.core_1.15.0.v20170411-2003.jar
file:/root/.p2/pool/plugins/org.eclipse.mylyn.git.ui_1.15.0.v20170411-2003.jar
file:/root/.p2/pool/plugins/org.eclipse.mylyn.help.ui_3.23.0.v20170411-2036.jar
file:/root/.p2/pool/plugins/org.eclipse.mylyn.hudson.core_1.15.0.v20170411-2141.jar
file:/root/.p2/pool/plugins/org.eclipse.mylyn.hudson.ui_1.15.0.v20170411-2141.jar
file:/root/.p2/pool/plugins/org.eclipse.mylyn.ide.ant_3.23.0.v20170411-2108.jar
file:/root/.p2/pool/plugins/org.eclipse.mylyn.ide.ui_3.23.0.v20170411-2108.jar
file:/root/.p2/pool/plugins/org.eclipse.mylyn.java.tasks_3.23.0.v20170411-2108.jar
file:/root/.p2/pool/plugins/org.eclipse.mylyn.java.ui_3.23.0.v20170411-2108.jar
file:/root/.p2/pool/plugins/org.eclipse.mylyn.monitor.core_3.23.0.v20170411-1844.jar
file:/root/.p2/pool/plugins/org.eclipse.mylyn.monitor.ui_3.23.0.v20170411-1844.jar
file:/root/.p2/pool/plugins/org.eclipse.mylyn.resources.ui_3.23.0.v20170411-2108.jar
file:/root/.p2/pool/plugins/org.eclipse.mylyn.tasks.bugs_3.23.0.v20170411-2036.jar
file:/root/.p2/pool/plugins/org.eclipse.mylyn.tasks.core_3.23.1.v20170623-0008.jar
file:/root/.p2/pool/plugins/org.eclipse.mylyn.tasks.index.core_3.23.1.v20170623-0008.jar
file:/root/.p2/pool/plugins/org.eclipse.mylyn.tasks.index.ui_3.23.1.v20170623-0008.jar
file:/root/.p2/pool/plugins/org.eclipse.mylyn.tasks.search_3.23.1.v20170623-0008.jar
file:/root/.p2/pool/plugins/org.eclipse.mylyn.tasks.ui_3.23.1.v20170623-0008.jar
file:/root/.p2/pool/plugins/org.eclipse.mylyn.team.ui_3.23.0.v20170411-2108.jar
file:/root/.p2/pool/plugins/org.eclipse.mylyn.versions.core_1.15.0.v20170411-2003.jar
file:/root/.p2/pool/plugins/org.eclipse.mylyn.versions.ui_1.15.0.v20170411-2003.jar
file:/root/.p2/pool/plugins/org.eclipse.mylyn.wikitext_3.0.6.20170311142502.jar
file:/root/.p2/pool/plugins/org.eclipse.mylyn.wikitext.ant_3.0.6.20170311142502.jar
file:/root/.p2/pool/plugins/org.eclipse.mylyn.wikitext.asciidoc_3.0.6.20170311142502.jar
file:/root/.p2/pool/plugins/org.eclipse.mylyn.wikitext.asciidoc.ui_3.0.6.201703111926.jar
file:/root/.p2/pool/plugins/org.eclipse.mylyn.wikitext.confluence_3.0.6.20170311142502.jar
file:/root/.p2/pool/plugins/org.eclipse.mylyn.wikitext.confluence.ui_3.0.6.201703111926.jar
file:/root/.p2/pool/plugins/org.eclipse.mylyn.wikitext.context.ui_3.0.6.201703111926.jar
file:/root/.p2/pool/plugins/org.eclipse.mylyn.wikitext.help.ui_3.0.6.201703111926.jar
file:/root/.p2/pool/plugins/org.eclipse.mylyn.wikitext.html_3.0.6.20170311142502.jar
file:/root/.p2/pool/plugins/org.eclipse.mylyn.wikitext.markdown_3.0.6.20170311142502.jar
file:/root/.p2/pool/plugins/org.eclipse.mylyn.wikitext.markdown.ui_3.0.6.201703111926.jar
file:/root/.p2/pool/plugins/org.eclipse.mylyn.wikitext.mediawiki_3.0.6.20170311142502.jar
file:/root/.p2/pool/plugins/org.eclipse.mylyn.wikitext.mediawiki.ui_3.0.6.201703111926.jar
file:/root/.p2/pool/plugins/org.eclipse.mylyn.wikitext.osgi_3.0.6.201703111926.jar
file:/root/.p2/pool/plugins/org.eclipse.mylyn.wikitext.tasks.ui_3.0.6.201703111926.jar
file:/root/.p2/pool/plugins/org.eclipse.mylyn.wikitext.textile_3.0.6.20170311142502.jar
file:/root/.p2/pool/plugins/org.eclipse.mylyn.wikitext.textile.ui_3.0.6.201703111926.jar
file:/root/.p2/pool/plugins/org.eclipse.mylyn.wikitext.tracwiki_3.0.6.20170311142502.jar
file:/root/.p2/pool/plugins/org.eclipse.mylyn.wikitext.tracwiki.ui_3.0.6.201703111926.jar
file:/root/.p2/pool/plugins/org.eclipse.mylyn.wikitext.twiki_3.0.6.20170311142502.jar
file:/root/.p2/pool/plugins/org.eclipse.mylyn.wikitext.twiki.ui_3.0.6.201703111926.jar
file:/root/.p2/pool/plugins/org.eclipse.mylyn.wikitext.ui_3.0.6.201703111926.jar
file:/root/.p2/pool/plugins/org.eclipse.nebula.widgets.gallery_1.0.0.201706221838.jar
file:/root/.p2/pool/plugins/org.eclipse.nebula.widgets.tablecombo_1.0.0.201707111605.jar
file:/root/.p2/pool/plugins/org.eclipse.ocl_3.6.200.v20170522-1736.jar
file:/root/.p2/pool/plugins/org.eclipse.ocl.common_1.4.200.v20160613-1518.jar
file:/root/.p2/pool/plugins/org.eclipse.ocl.ecore_3.6.200.v20170522-1736.jar
file:/root/.p2/pool/plugins/org.eclipse.oomph.base_1.8.0.v20170318-0624.jar
file:/root/.p2/pool/plugins/org.eclipse.oomph.base.edit_1.8.0.v20170318-0624.jar
file:/root/.p2/pool/plugins/org.eclipse.oomph.extractor.lib_1.3.0.v20161116-0647.jar
file:/root/.p2/pool/plugins/org.eclipse.oomph.jreinfo_1.8.0.v20170318-0624.jar
file:/root/.p2/pool/plugins/org.eclipse.oomph.jreinfo.ui_1.8.0.v20170327-1117.jar
file:/root/.p2/pool/plugins/org.eclipse.oomph.p2_1.8.0.v20170318-0419.jar
file:/root/.p2/pool/plugins/org.eclipse.oomph.p2.core_1.8.0.v20170410-0909.jar
file:/root/.p2/pool/plugins/org.eclipse.oomph.p2.doc_1.8.0.v20170318-0419.jar
file:/root/.p2/pool/plugins/org.eclipse.oomph.p2.edit_1.8.0.v20170318-0419.jar
file:/root/.p2/pool/plugins/org.eclipse.oomph.p2.ui_1.8.0.v20170327-1117.jar
file:/root/.p2/pool/plugins/org.eclipse.oomph.predicates_1.8.0.v20170327-1117.jar
file:/root/.p2/pool/plugins/org.eclipse.oomph.predicates.edit_1.8.0.v20170318-0419.jar
file:/root/.p2/pool/plugins/org.eclipse.oomph.preferences_1.8.0.v20170318-0419.jar
file:/root/.p2/pool/plugins/org.eclipse.oomph.resources_1.8.0.v20170318-0419.jar
file:/root/.p2/pool/plugins/org.eclipse.oomph.resources.edit_1.8.0.v20170318-0419.jar
file:/root/.p2/pool/plugins/org.eclipse.oomph.setup_1.8.0.v20170408-0745.jar
file:/root/.p2/pool/plugins/org.eclipse.oomph.setup.core_1.8.0.v20170531-0903.jar
file:/root/.p2/pool/plugins/org.eclipse.oomph.setup.doc_1.9.0.v20170706-0615.jar
file:/root/.p2/pool/plugins/org.eclipse.oomph.setup.edit_1.8.0.v20170318-0419.jar
file:/root/.p2/pool/plugins/org.eclipse.oomph.setup.editor_1.8.0.v20170327-1117.jar
file:/root/.p2/pool/plugins/org.eclipse.oomph.setup.p2_1.8.0.v20170318-0419.jar
file:/root/.p2/pool/plugins/org.eclipse.oomph.setup.p2.edit_1.8.0.v20170318-0419.jar
file:/root/.p2/pool/plugins/org.eclipse.oomph.setup.sync_1.8.0.v20170530-1735.jar
file:/root/.p2/pool/plugins/org.eclipse.oomph.setup.ui_1.8.0.v20170530-1735.jar
file:/root/.p2/pool/plugins/org.eclipse.oomph.setup.ui.questionnaire_1.8.0.v20170318-0419.jar
file:/root/.p2/pool/plugins/org.eclipse.oomph.ui_1.8.0.v20170327-1117.jar
file:/root/.p2/pool/plugins/org.eclipse.oomph.util_1.8.0.v20170706-0534.jar
file:/root/.p2/pool/plugins/org.eclipse.oomph.workingsets_1.8.0.v20170318-0419.jar
file:/root/.p2/pool/plugins/org.eclipse.oomph.workingsets.edit_1.8.0.v20170318-0419.jar
file:/root/.p2/pool/plugins/org.eclipse.oomph.workingsets.editor_1.8.0.v20170327-1117.jar
file:/root/.p2/pool/plugins/org.eclipse.osgi_3.12.50.v20170928-1321.jar
file:/root/.p2/pool/plugins/org.eclipse.osgi.compatibility.state_1.1.0.v20170516-1513.jar
file:/root/.p2/pool/plugins/org.eclipse.osgi.services_3.6.0.v20170228-1906.jar
file:/root/.p2/pool/plugins/org.eclipse.osgi.util_3.4.0.v20170111-1608.jar
file:/root/.p2/pool/plugins/org.eclipse.pde_3.13.0.v20170612-0950.jar
file:/root/.p2/pool/plugins/org.eclipse.pde.api.tools_1.1.100.v20170529-0100.jar
file:/root/.p2/pool/plugins/org.eclipse.pde.api.tools.annotations_1.1.0.v20170118-0848.jar
file:/root/.p2/pool/plugins/org.eclipse.pde.api.tools.ui_1.1.100.v20170516-1013.jar
file:/root/.p2/pool/plugins/org.eclipse.pde.build_3.9.300.v20170515-0912/
file:/root/.p2/pool/plugins/org.eclipse.pde.core_3.11.100.v20170517-0724.jar
file:/root/.p2/pool/plugins/org.eclipse.pde.doc.user_3.13.0.v20170608-0925.jar
file:/root/.p2/pool/plugins/org.eclipse.pde.ds.annotations_1.1.0.v20170516-2121.jar
file:/root/.p2/pool/plugins/org.eclipse.pde.ds.core_1.1.100.v20170515-0910.jar
file:/root/.p2/pool/plugins/org.eclipse.pde.ds.lib_1.1.0.v20170303-1624/
file:/root/.p2/pool/plugins/org.eclipse.pde.ds.ui_1.1.100.v20170515-0910.jar
file:/root/.p2/pool/plugins/org.eclipse.pde.ds1_2.lib_1.0.0.v20170303-1624/
file:/root/.p2/pool/plugins/org.eclipse.pde.genericeditor.extension_1.0.0.v20170315-0955.jar
file:/root/.p2/pool/plugins/org.eclipse.pde.junit.runtime_3.5.0.v20151013-0625.jar
file:/root/.p2/pool/plugins/org.eclipse.pde.launching_3.7.0.v20170322-1119.jar
file:/root/.p2/pool/plugins/org.eclipse.pde.runtime_3.6.0.v20170413-1620.jar
file:/root/.p2/pool/plugins/org.eclipse.pde.ua.core_1.1.0.v20170201-2036.jar
file:/root/.p2/pool/plugins/org.eclipse.pde.ua.ui_1.1.100.v20170515-0910.jar
file:/root/.p2/pool/plugins/org.eclipse.pde.ui_3.10.0.v20170523-1510.jar
file:/root/.p2/pool/plugins/org.eclipse.pde.ui.templates_3.6.100.v20170515-0910.jar
file:/root/.p2/pool/plugins/org.eclipse.platform_4.7.1.v20171009-0410/
file:/root/.p2/pool/plugins/org.eclipse.platform.doc.user_4.7.1.v20170630-0820.jar
file:/root/.p2/pool/plugins/org.eclipse.rcp_4.7.1.v20171009-0410.jar
file:/root/.p2/pool/plugins/org.eclipse.recommenders.apidocs_2.4.10.v20170911-1410.jar
file:/root/.p2/pool/plugins/org.eclipse.recommenders.apidocs.rcp_2.4.10.v20170911-1410.jar
file:/root/.p2/pool/plugins/org.eclipse.recommenders.calls_2.4.10.v20170911-1410.jar
file:/root/.p2/pool/plugins/org.eclipse.recommenders.calls.rcp_2.4.10.v20170911-1410.jar
file:/root/.p2/pool/plugins/org.eclipse.recommenders.chain.rcp_2.4.10.v20170911-1410.jar
file:/root/.p2/pool/plugins/org.eclipse.recommenders.completion.rcp_2.4.10.v20170911-1410.jar
file:/root/.p2/pool/plugins/org.eclipse.recommenders.constructors_2.4.10.v20170911-1410.jar
file:/root/.p2/pool/plugins/org.eclipse.recommenders.constructors.rcp_2.4.10.v20170911-1410.jar
file:/root/.p2/pool/plugins/org.eclipse.recommenders.coordinates_2.4.10.v20170911-1410.jar
file:/root/.p2/pool/plugins/org.eclipse.recommenders.coordinates.rcp_2.4.10.v20170911-1410.jar
file:/root/.p2/pool/plugins/org.eclipse.recommenders.injection_2.4.10.v20170911-1410.jar
file:/root/.p2/pool/plugins/org.eclipse.recommenders.jayes_2.4.10.v20170911-1410.jar
file:/root/.p2/pool/plugins/org.eclipse.recommenders.jayes.io_2.4.10.v20170911-1410.jar
file:/root/.p2/pool/plugins/org.eclipse.recommenders.jdt_2.4.10.v20170911-1410.jar
file:/root/.p2/pool/plugins/org.eclipse.recommenders.models_2.4.10.v20170911-1410.jar
file:/root/.p2/pool/plugins/org.eclipse.recommenders.models.rcp_2.4.10.v20170911-1410.jar
file:/root/.p2/pool/plugins/org.eclipse.recommenders.mylyn.rcp_2.4.10.v20170911-1410.jar
file:/root/.p2/pool/plugins/org.eclipse.recommenders.net_2.4.10.v20170911-1410.jar
file:/root/.p2/pool/plugins/org.eclipse.recommenders.overrides_2.4.10.v20170911-1410.jar
file:/root/.p2/pool/plugins/org.eclipse.recommenders.overrides.rcp_2.4.10.v20170911-1410.jar
file:/root/.p2/pool/plugins/org.eclipse.recommenders.rcp_2.4.10.v20170911-1410.jar
file:/root/.p2/pool/plugins/org.eclipse.recommenders.snipmatch_2.4.10.v20170911-1410.jar
file:/root/.p2/pool/plugins/org.eclipse.recommenders.snipmatch.rcp_2.4.10.v20170911-1410.jar
file:/root/.p2/pool/plugins/org.eclipse.recommenders.subwords.rcp_2.4.10.v20170911-1410.jar
file:/root/.p2/pool/plugins/org.eclipse.recommenders.types.rcp_2.4.10.v20170911-1410.jar
file:/root/.p2/pool/plugins/org.eclipse.recommenders.utils_2.4.10.v20170911-1410.jar
file:/root/.p2/pool/plugins/org.eclipse.recommenders.utils.rcp_2.4.10.v20170911-1410.jar
file:/root/.p2/pool/plugins/org.eclipse.search_3.11.100.v20170515-1603.jar
file:/root/.p2/pool/plugins/org.eclipse.sirius_4.1.1.201610251427.jar
file:/root/.p2/pool/plugins/org.eclipse.sirius.common_4.1.1.201610251427.jar
file:/root/.p2/pool/plugins/org.eclipse.sirius.common.acceleo.aql_4.1.1.201610251427.jar
file:/root/.p2/pool/plugins/org.eclipse.sirius.common.acceleo.mtl_4.1.1.201610251427.jar
file:/root/.p2/pool/plugins/org.eclipse.sirius.common.acceleo.mtl.ide_4.1.1.201610251427.jar
file:/root/.p2/pool/plugins/org.eclipse.sirius.common.ui_4.1.1.201610251427.jar
file:/root/.p2/pool/plugins/org.eclipse.sirius.common.ui.ext_4.1.1.201610251427.jar
file:/root/.p2/pool/plugins/org.eclipse.sirius.diagram_4.1.1.201610251427.jar
file:/root/.p2/pool/plugins/org.eclipse.sirius.diagram.formatdata_4.1.1.201610251427.jar
file:/root/.p2/pool/plugins/org.eclipse.sirius.diagram.layoutdata_4.1.1.201610251427.jar
file:/root/.p2/pool/plugins/org.eclipse.sirius.diagram.sequence_4.1.1.201610251427.jar
file:/root/.p2/pool/plugins/org.eclipse.sirius.diagram.sequence.edit_4.1.1.201610251427.jar
file:/root/.p2/pool/plugins/org.eclipse.sirius.diagram.sequence.ui_4.1.1.201610251427.jar
file:/root/.p2/pool/plugins/org.eclipse.sirius.diagram.ui_4.1.1.201610251427.jar
file:/root/.p2/pool/plugins/org.eclipse.sirius.diagram.ui.ext_4.1.1.201610251427.jar
file:/root/.p2/pool/plugins/org.eclipse.sirius.ecore.extender_4.1.1.201610251427.jar
file:/root/.p2/pool/plugins/org.eclipse.sirius.editor_4.1.1.201610251427.jar
file:/root/.p2/pool/plugins/org.eclipse.sirius.editor.diagram_4.1.1.201610251427.jar
file:/root/.p2/pool/plugins/org.eclipse.sirius.editor.sequence_4.1.1.201610251427.jar
file:/root/.p2/pool/plugins/org.eclipse.sirius.editor.table_4.1.1.201610251427.jar
file:/root/.p2/pool/plugins/org.eclipse.sirius.editor.tree_4.1.1.201610251427.jar
file:/root/.p2/pool/plugins/org.eclipse.sirius.eef.adapters_4.1.1.201610251427.jar
file:/root/.p2/pool/plugins/org.eclipse.sirius.ext.base_4.1.1.201610251427.jar
file:/root/.p2/pool/plugins/org.eclipse.sirius.ext.draw2d_4.1.1.201610251427.jar
file:/root/.p2/pool/plugins/org.eclipse.sirius.ext.e3_4.1.1.201610251427.jar
file:/root/.p2/pool/plugins/org.eclipse.sirius.ext.e3.ui_4.1.1.201610251427.jar
file:/root/.p2/pool/plugins/org.eclipse.sirius.ext.emf_4.1.1.201610251427.jar
file:/root/.p2/pool/plugins/org.eclipse.sirius.ext.emf.edit_4.1.1.201610251427.jar
file:/root/.p2/pool/plugins/org.eclipse.sirius.ext.emf.tx_4.1.1.201610251427.jar
file:/root/.p2/pool/plugins/org.eclipse.sirius.ext.emf.ui_4.1.1.201610251427.jar
file:/root/.p2/pool/plugins/org.eclipse.sirius.ext.gef_4.1.1.201610251427.jar
file:/root/.p2/pool/plugins/org.eclipse.sirius.ext.gmf.notation_4.1.1.201610251427.jar
file:/root/.p2/pool/plugins/org.eclipse.sirius.ext.gmf.runtime_4.1.1.201610251427.jar
file:/root/.p2/pool/plugins/org.eclipse.sirius.ext.jface_4.1.1.201610251427.jar
file:/root/.p2/pool/plugins/org.eclipse.sirius.ext.swt_4.1.1.201610251427.jar
file:/root/.p2/pool/plugins/org.eclipse.sirius.interpreter_4.1.1.201610251427.jar
file:/root/.p2/pool/plugins/org.eclipse.sirius.synchronizer_4.1.1.201610251427.jar
file:/root/.p2/pool/plugins/org.eclipse.sirius.table_4.1.1.201610251427.jar
file:/root/.p2/pool/plugins/org.eclipse.sirius.table.ui_4.1.1.201610251427.jar
file:/root/.p2/pool/plugins/org.eclipse.sirius.table.ui.ext_4.1.1.201610251427.jar
file:/root/.p2/pool/plugins/org.eclipse.sirius.tree_4.1.1.201610251427.jar
file:/root/.p2/pool/plugins/org.eclipse.sirius.tree.ui_4.1.1.201610251427.jar
file:/root/.p2/pool/plugins/org.eclipse.sirius.tree.ui.ext_4.1.1.201610251427.jar
file:/root/.p2/pool/plugins/org.eclipse.sirius.ui_4.1.1.201610251427.jar
file:/root/.p2/pool/plugins/org.eclipse.sirius.ui.ext_4.1.1.201610251427.jar
file:/root/.p2/pool/plugins/org.eclipse.swt_3.106.1.v20170926-0519.jar
file:/root/.p2/pool/plugins/org.eclipse.swt.gtk.linux.x86_64_3.106.1.v20170926-0519.jar
file:/root/.p2/pool/plugins/org.eclipse.team.core_3.8.100.v20170516-0820.jar
file:/root/.p2/pool/plugins/org.eclipse.team.genericeditor.diff.extension_1.0.1.v20170809-1356.jar
file:/root/.p2/pool/plugins/org.eclipse.team.ui_3.8.1.v20170515-1133.jar
file:/root/.p2/pool/plugins/org.eclipse.text_3.6.100.v20170203-0814.jar
file:/root/.p2/pool/plugins/org.eclipse.tools.layout.spy_1.0.0.v20170428-1608.jar
file:/root/.p2/pool/plugins/org.eclipse.ui_3.109.0.v20170411-1742.jar
file:/root/.p2/pool/plugins/org.eclipse.ui.browser_3.6.100.v20170418-1342.jar
file:/root/.p2/pool/plugins/org.eclipse.ui.cheatsheets_3.5.100.v20170515-0748.jar
file:/root/.p2/pool/plugins/org.eclipse.ui.console_3.7.1.v20170728-0806.jar
file:/root/.p2/pool/plugins/org.eclipse.ui.editors_3.11.0.v20170202-1823.jar
file:/root/.p2/pool/plugins/org.eclipse.ui.externaltools_3.4.0.v20161212-0515.jar
file:/root/.p2/pool/plugins/org.eclipse.ui.forms_3.7.101.v20170815-1446.jar
file:/root/.p2/pool/plugins/org.eclipse.ui.genericeditor_1.0.1.v20170822-2211.jar
file:/root/.p2/pool/plugins/org.eclipse.ui.ide_3.13.1.v20170822-1526.jar
file:/root/.p2/pool/plugins/org.eclipse.ui.ide.application_1.2.0.v20170512-1452.jar
file:/root/.p2/pool/plugins/org.eclipse.ui.intro_3.5.100.v20170418-0710.jar
file:/root/.p2/pool/plugins/org.eclipse.ui.intro.quicklinks_1.0.100.v20170515-0756.jar
file:/root/.p2/pool/plugins/org.eclipse.ui.intro.universal_3.3.100.v20170515-1335.jar
file:/root/.p2/pool/plugins/org.eclipse.ui.monitoring_1.1.100.v20170131-1736.jar
file:/root/.p2/pool/plugins/org.eclipse.ui.navigator_3.7.0.v20170418-1342.jar
file:/root/.p2/pool/plugins/org.eclipse.ui.navigator.resources_3.6.1.v20170823-1443.jar
file:/root/.p2/pool/plugins/org.eclipse.ui.net_1.3.100.v20170516-0820.jar
file:/root/.p2/pool/plugins/org.eclipse.ui.themes_1.2.1.v20170809-1435/
file:/root/.p2/pool/plugins/org.eclipse.ui.trace_1.1.0.v20170201-2036.jar
file:/root/.p2/pool/plugins/org.eclipse.ui.views_3.9.0.v20170226-1833.jar
file:/root/.p2/pool/plugins/org.eclipse.ui.views.log_1.2.100.v20170515-1458.jar
file:/root/.p2/pool/plugins/org.eclipse.ui.views.properties.tabbed_3.8.1.v20170713-0803.jar
file:/root/.p2/pool/plugins/org.eclipse.ui.workbench_3.110.1.v20170704-1208.jar
file:/root/.p2/pool/plugins/org.eclipse.ui.workbench.texteditor_3.10.100.v20170426-2021.jar
file:/root/.p2/pool/plugins/org.eclipse.uml2_5.2.0.v20160822-0739.jar
file:/root/.p2/pool/plugins/org.eclipse.uml2.ant_1.0.0.v20160822-0739.jar
file:/root/.p2/pool/plugins/org.eclipse.uml2.codegen.ecore_2.2.0.v20160822-0739.jar
file:/root/.p2/pool/plugins/org.eclipse.uml2.codegen.ecore.ui_2.1.0.v20160822-0739.jar
file:/root/.p2/pool/plugins/org.eclipse.uml2.common_2.1.0.v20160822-0739.jar
file:/root/.p2/pool/plugins/org.eclipse.uml2.common.edit_2.1.0.v20160822-0739.jar
file:/root/.p2/pool/plugins/org.eclipse.uml2.types_2.0.0.v20160822-0739.jar
file:/root/.p2/pool/plugins/org.eclipse.uml2.uml_5.2.1.v20160822-0739.jar
file:/root/.p2/pool/plugins/org.eclipse.uml2.uml.ecore.exporter_3.0.0.v20160822-0739.jar
file:/root/.p2/pool/plugins/org.eclipse.uml2.uml.ecore.importer_3.1.0.v20160822-0739.jar
file:/root/.p2/pool/plugins/org.eclipse.uml2.uml.edit_5.2.1.v20160822-0739.jar
file:/root/.p2/pool/plugins/org.eclipse.uml2.uml.editor_5.2.0.v20160822-0739.jar
file:/root/.p2/pool/plugins/org.eclipse.uml2.uml.profile.standard_1.0.100.v20160822-0739.jar
file:/root/.p2/pool/plugins/org.eclipse.uml2.uml.resources_5.2.0.v20160822-0739.jar
file:/root/.p2/pool/plugins/org.eclipse.uml2.uml.validation_5.0.0.v20160822-0739.jar
file:/root/.p2/pool/plugins/org.eclipse.umlgen.doc_1.0.0.201511201014.jar
file:/root/.p2/pool/plugins/org.eclipse.umlgen.gen.java_3.0.0.201511201014.jar
file:/root/.p2/pool/plugins/org.eclipse.umlgen.gen.java.doc_3.0.0.201511201014.jar
file:/root/.p2/pool/plugins/org.eclipse.umlgen.gen.java.ui_3.0.0.201511201014.jar
file:/root/.p2/pool/plugins/org.eclipse.umlgen.ui_1.0.0.201511201014.jar
file:/root/.p2/pool/plugins/org.eclipse.update.configurator_3.3.400.v20160506-0750.jar
file:/root/.p2/pool/plugins/org.eclipse.userstorage_1.1.0.v20170328-0205.jar
file:/root/.p2/pool/plugins/org.eclipse.userstorage.oauth_1.0.0.v20170526-1605.jar
file:/root/.p2/pool/plugins/org.eclipse.userstorage.ui_1.0.2.v20170526-1605.jar
file:/root/.p2/pool/plugins/org.eclipse.wb.core_1.9.0.201608250402.jar
file:/root/.p2/pool/plugins/org.eclipse.wb.core.databinding_1.9.0.201608250402.jar
file:/root/.p2/pool/plugins/org.eclipse.wb.core.databinding.xml_1.9.0.201608250402.jar
file:/root/.p2/pool/plugins/org.eclipse.wb.core.java_1.9.0.201608250402.jar
file:/root/.p2/pool/plugins/org.eclipse.wb.core.lib_1.9.0.201608250402.jar
file:/root/.p2/pool/plugins/org.eclipse.wb.core.ui_1.9.0.201608250402.jar
file:/root/.p2/pool/plugins/org.eclipse.wb.core.xml_1.9.0.201608250402.jar
file:/root/.p2/pool/plugins/org.eclipse.wb.css_1.9.0.201608250402.jar
file:/root/.p2/pool/plugins/org.eclipse.wb.doc.user_1.9.0.201608250402.jar
file:/root/.p2/pool/plugins/org.eclipse.wb.layout.group_1.9.0.201608250402.jar
file:/root/.p2/pool/plugins/org.eclipse.wb.os_1.9.0.201608250402.jar
file:/root/.p2/pool/plugins/org.eclipse.wb.os.linux_1.9.0.201608250402.jar
file:/root/.p2/pool/plugins/org.eclipse.wb.rcp_1.9.0.201608250402.jar
file:/root/.p2/pool/plugins/org.eclipse.wb.rcp.SWT_AWT_1.9.0.201608250402.jar
file:/root/.p2/pool/plugins/org.eclipse.wb.rcp.databinding_1.9.0.201608250402.jar
file:/root/.p2/pool/plugins/org.eclipse.wb.rcp.databinding.emf_1.9.0.201608250402.jar
file:/root/.p2/pool/plugins/org.eclipse.wb.rcp.databinding.xwt_1.9.0.201608250402.jar
file:/root/.p2/pool/plugins/org.eclipse.wb.rcp.doc.user_1.9.0.201608250402.jar
file:/root/.p2/pool/plugins/org.eclipse.wb.rcp.nebula_1.9.0.201608250402.jar
file:/root/.p2/pool/plugins/org.eclipse.wb.rcp.swing2swt_1.9.0.201608250402.jar
file:/root/.p2/pool/plugins/org.eclipse.wb.runtime_1.9.0.201608250402.jar
file:/root/.p2/pool/plugins/org.eclipse.wb.runtime.lib_1.9.0.201608250402.jar
file:/root/.p2/pool/plugins/org.eclipse.wb.swing_1.9.0.201608250402.jar
file:/root/.p2/pool/plugins/org.eclipse.wb.swing.FormLayout_1.9.0.201608250402.jar
file:/root/.p2/pool/plugins/org.eclipse.wb.swing.FormLayout.lib_1.9.0.201608250402.jar
file:/root/.p2/pool/plugins/org.eclipse.wb.swing.MigLayout_1.9.0.201608250402.jar
file:/root/.p2/pool/plugins/org.eclipse.wb.swing.MigLayout.lib_1.9.0.201608250402.jar
file:/root/.p2/pool/plugins/org.eclipse.wb.swing.databinding_1.9.0.201608250402.jar
file:/root/.p2/pool/plugins/org.eclipse.wb.swing.doc.user_1.9.0.201608250402.jar
file:/root/.p2/pool/plugins/org.eclipse.wb.swing.java6_1.9.0.201608250402.jar
file:/root/.p2/pool/plugins/org.eclipse.wb.swing.jsr296_1.9.0.201608250402.jar
file:/root/.p2/pool/plugins/org.eclipse.wb.swt_1.9.0.201608250402.jar
file:/root/.p2/pool/plugins/org.eclipse.wb.swt.widgets.baseline_1.9.0.201608250402.jar
file:/root/.p2/pool/plugins/org.eclipse.wb.xwt_1.9.0.201608250402.jar
file:/root/.p2/pool/plugins/org.eclipse.wst.common.core_1.2.0.v200908251833.jar
file:/root/.p2/pool/plugins/org.eclipse.wst.common.emf_1.2.500.v201701191735.jar
file:/root/.p2/pool/plugins/org.eclipse.wst.common.emfworkbench.integration_1.2.101.v201107081800.jar
file:/root/.p2/pool/plugins/org.eclipse.wst.common.environment_1.0.400.v200912181831.jar
file:/root/.p2/pool/plugins/org.eclipse.wst.common.frameworks_1.2.201.v201707201954.jar
file:/root/.p2/pool/plugins/org.eclipse.wst.common.frameworks.ui_1.2.400.v201504292002.jar
file:/root/.p2/pool/plugins/org.eclipse.wst.common.infopop_1.0.300.v201309101952.jar
file:/root/.p2/pool/plugins/org.eclipse.wst.common.modulecore_1.3.0.v201705041406.jar
file:/root/.p2/pool/plugins/org.eclipse.wst.common.modulecore.ui_1.0.301.v201707201954.jar
file:/root/.p2/pool/plugins/org.eclipse.wst.common.project.facet.core_1.4.300.v201111030423.jar
file:/root/.p2/pool/plugins/org.eclipse.wst.common.snippets_1.2.300.v201705162046.jar
file:/root/.p2/pool/plugins/org.eclipse.wst.common.ui_1.1.500.v200911182011.jar
file:/root/.p2/pool/plugins/org.eclipse.wst.common.uriresolver_1.2.300.v201702270556.jar
file:/root/.p2/pool/plugins/org.eclipse.wst.dtd.core_1.1.700.v201211012112.jar
file:/root/.p2/pool/plugins/org.eclipse.wst.dtd.ui_1.0.801.v201308100602.jar
file:/root/.p2/pool/plugins/org.eclipse.wst.dtd.ui.infopop_1.0.400.v201707252002.jar
file:/root/.p2/pool/plugins/org.eclipse.wst.dtdeditor.doc.user_1.0.700.v201208081537.jar
file:/root/.p2/pool/plugins/org.eclipse.wst.internet.cache_1.0.800.v201702270716.jar
file:/root/.p2/pool/plugins/org.eclipse.wst.sse.core_1.1.1001.v201707042225.jar
file:/root/.p2/pool/plugins/org.eclipse.wst.sse.doc.user_1.1.100.v201208081537.jar
file:/root/.p2/pool/plugins/org.eclipse.wst.sse.ui_1.3.600.v201707042340.jar
file:/root/.p2/pool/plugins/org.eclipse.wst.sse.ui.infopop_1.0.300.v201707252002.jar
file:/root/.p2/pool/plugins/org.eclipse.wst.standard.schemas_1.0.800.v201706011851.jar
file:/root/.p2/pool/plugins/org.eclipse.wst.validation_1.2.701.v201707142105.jar
file:/root/.p2/pool/plugins/org.eclipse.wst.validation.infopop_1.0.300.v201309101952.jar
file:/root/.p2/pool/plugins/org.eclipse.wst.validation.ui_1.2.501.v201707142105.jar
file:/root/.p2/pool/plugins/org.eclipse.wst.xml.core_1.1.1100.v201705012045.jar
file:/root/.p2/pool/plugins/org.eclipse.wst.xml.ui_1.1.800.v201704102213.jar
file:/root/.p2/pool/plugins/org.eclipse.wst.xml.ui.infopop_1.0.400.v201707252002.jar
file:/root/.p2/pool/plugins/org.eclipse.wst.xmleditor.doc.user_1.0.700.v201707252002.jar
file:/root/.p2/pool/plugins/org.eclipse.wst.xsd.core_1.1.900.v201401141857.jar
file:/root/.p2/pool/plugins/org.eclipse.wst.xsd.ui_1.2.600.v201511240159.jar
file:/root/.p2/pool/plugins/org.eclipse.wst.xsdeditor.doc.user_1.0.800.v201707252002.jar
file:/root/.p2/pool/plugins/org.eclipse.xsd_2.13.0.v20170609-0928.jar
file:/root/.p2/pool/plugins/org.eclipse.xsd.edit_2.8.0.v20170609-0928.jar
file:/root/.p2/pool/plugins/org.gradle.toolingapi_3.5.0.v20170801075239.jar
file:/root/.p2/pool/plugins/org.hamcrest.core_1.3.0.v201303031735.jar
file:/root/.p2/pool/plugins/org.jacoco.agent_0.7.9.v20170208-1730.jar
file:/root/.p2/pool/plugins/org.jacoco.core_0.7.9.v20170208-1730.jar
file:/root/.p2/pool/plugins/org.jacoco.report_0.7.9.v20170208-1730.jar
file:/root/.p2/pool/plugins/org.jsoup_1.7.2.v201411291515.jar
file:/root/.p2/pool/plugins/org.junit_4.12.0.v201504281640/
file:/root/.p2/pool/plugins/org.junit.jupiter.api_5.0.0.v20170910-2246.jar
file:/root/.p2/pool/plugins/org.junit.jupiter.engine_5.0.0.v20170910-2246.jar
file:/root/.p2/pool/plugins/org.junit.jupiter.migrationsupport_5.0.0.v20170910-2246.jar
file:/root/.p2/pool/plugins/org.junit.jupiter.params_5.0.0.v20170910-2246.jar
file:/root/.p2/pool/plugins/org.junit.platform.commons_1.0.0.v20170910-2246.jar
file:/root/.p2/pool/plugins/org.junit.platform.engine_1.0.0.v20170910-2246.jar
file:/root/.p2/pool/plugins/org.junit.platform.launcher_1.0.0.v20170910-2246.jar
file:/root/.p2/pool/plugins/org.junit.platform.runner_1.0.0.v20170910-2246.jar
file:/root/.p2/pool/plugins/org.junit.platform.suite.api_1.0.0.v20170910-2246.jar
file:/root/.p2/pool/plugins/org.junit.vintage.engine_4.12.0.v20170910-2246.jar
file:/root/.p2/pool/plugins/org.obeonetwork.dsl.uml2.dashboard_7.1.0.201611211357.jar
file:/root/.p2/pool/plugins/org.obeonetwork.dsl.uml2.design_7.1.0.201611211357.jar
file:/root/.p2/pool/plugins/org.obeonetwork.dsl.uml2.design.doc_7.1.0.201611211357.jar
file:/root/.p2/pool/plugins/org.obeonetwork.dsl.uml2.discovery_7.1.0.201611211357.jar
file:/root/.p2/pool/plugins/org.obeonetwork.dsl.uml2.migration_7.1.0.201611211357.jar
file:/root/.p2/pool/plugins/org.obeonetwork.dsl.uml2.navigator_7.1.0.201611211357.jar
file:/root/.p2/pool/plugins/org.obeonetwork.dsl.uml2.properties_7.1.0.201611211357.jar
file:/root/.p2/pool/plugins/org.obeonetwork.dsl.uml2.usage_7.1.0.201611211357.jar
file:/root/.p2/pool/plugins/org.obeonetwork.gmf.runtime.diagram.ui.extension_7.1.0.201611211357.jar
file:/root/.p2/pool/plugins/org.objectweb.asm_5.2.0.v20170126-0011.jar
file:/root/.p2/pool/plugins/org.objectweb.asm_5.0.1.v201404251740.jar
file:/root/.p2/pool/plugins/org.objectweb.asm.commons_5.2.0.v20170126-0011.jar
file:/root/.p2/pool/plugins/org.objectweb.asm.tree_5.2.0.v20170126-0011.jar
file:/root/.p2/pool/plugins/org.objectweb.asm.tree_5.0.1.v201404251740.jar
file:/root/.p2/pool/plugins/org.opentest4j_1.0.0.v20170910-2246.jar
file:/root/.p2/pool/plugins/org.sat4j.core_2.3.5.v201308161310.jar
file:/root/.p2/pool/plugins/org.sat4j.pb_2.3.5.v201404071733.jar
file:/root/.p2/pool/plugins/org.slf4j.api_1.7.2.v20121108-1250.jar
file:/root/.p2/pool/plugins/org.slf4j.impl.log4j12_1.7.2.v20131105-2200.jar
file:/root/.p2/pool/plugins/org.tukaani.xz_1.5.0.v20170111-1717.jar
file:/root/.p2/pool/plugins/org.w3c.css.sac_1.3.1.v200903091627.jar
file:/root/.p2/pool/plugins/org.w3c.dom.events_3.0.0.draft20060413_v201105210656.jar
file:/root/.p2/pool/plugins/org.w3c.dom.smil_1.0.1.v200903091627.jar
file:/root/.p2/pool/plugins/org.w3c.dom.svg_1.1.0.v201011041433.jar
